## Interface: 80000
## Title: OmniCC
## Notes: Cooldown count for everything
## Notes-koKR: 모든 것을 위한 쿨다운 카운트
## Author: Tuller
## Version: 8.0.6
## SavedVariables: OmniCC4Config
libs\libs.xml
localization\localization.xml
main.lua
core\core.xml
settings\settings.xml
effects\effects.xml
